<?xml version="1.0" encoding="UTF-8"?>
<svg width="311px" height="318px" viewBox="0 0 311 318" version="1.1" xmlns="http://www.w3.org/2000/svg" xmlns:xlink="http://www.w3.org/1999/xlink">
    <!-- Generator: Sketch 44.1 (41455) - http://www.bohemiancoding.com/sketch -->
    <title>empty</title>
    <desc>Created with Sketch.</desc>
    <defs></defs>
    <g id="Symbols" stroke="none" stroke-width="1" fill="none" fill-rule="evenodd">
        <g id="empty" fill="#8D8D8D">
            <g id="points" transform="translate(3.000000, 6.000000)">
                <path d="M153.716182,0.193772727 L153.716182,0.193772727 C238.224682,0.193772727 307.368,69.3370909 307.368,153.845591 C307.368,238.354091 238.224682,307.497409 153.716182,307.497409 C69.2076818,307.497409 0.0643636364,238.354091 0.0643636364,153.845591 C0.0643636364,69.3370909 69.2076818,0.193772727 153.716182,0.193772727" id="Fill-1"></path>
            </g>
        </g>
    </g>
</svg>